<?xml version="1.0" encoding="utf-8"?>
<!DOCTYPE eagle SYSTEM "eagle.dtd">
<eagle version="9.1.0">
<drawing>
<settings>
<setting alwaysvectorfont="no"/>
<setting verticaltext="up"/>
</settings>
<grid distance="0.1" unitdist="inch" unit="inch" style="lines" multiple="1" display="no" altdistance="0.01" altunitdist="inch" altunit="inch"/>
<layers>
<layer number="1" name="Top" color="4" fill="1" visible="no" active="no"/>
<layer number="16" name="Bottom" color="1" fill="1" visible="no" active="no"/>
<layer number="17" name="Pads" color="2" fill="1" visible="no" active="no"/>
<layer number="18" name="Vias" color="2" fill="1" visible="no" active="no"/>
<layer number="19" name="Unrouted" color="6" fill="1" visible="no" active="no"/>
<layer number="20" name="Dimension" color="15" fill="1" visible="no" active="no"/>
<layer number="21" name="tPlace" color="16" fill="1" visible="no" active="no"/>
<layer number="22" name="bPlace" color="7" fill="1" visible="no" active="no"/>
<layer number="23" name="tOrigins" color="15" fill="1" visible="no" active="no"/>
<layer number="24" name="bOrigins" color="15" fill="1" visible="no" active="no"/>
<layer number="25" name="tNames" color="7" fill="1" visible="no" active="no"/>
<layer number="26" name="bNames" color="7" fill="1" visible="no" active="no"/>
<layer number="27" name="tValues" color="7" fill="1" visible="no" active="no"/>
<layer number="28" name="bValues" color="7" fill="1" visible="no" active="no"/>
<layer number="29" name="tStop" color="7" fill="3" visible="no" active="no"/>
<layer number="30" name="bStop" color="7" fill="6" visible="no" active="no"/>
<layer number="31" name="tCream" color="11" fill="4" visible="no" active="no"/>
<layer number="32" name="bCream" color="7" fill="5" visible="no" active="no"/>
<layer number="33" name="tFinish" color="6" fill="3" visible="no" active="no"/>
<layer number="34" name="bFinish" color="6" fill="6" visible="no" active="no"/>
<layer number="35" name="tGlue" color="7" fill="4" visible="no" active="no"/>
<layer number="36" name="bGlue" color="7" fill="5" visible="no" active="no"/>
<layer number="37" name="tTest" color="7" fill="1" visible="no" active="no"/>
<layer number="38" name="bTest" color="7" fill="1" visible="no" active="no"/>
<layer number="39" name="tKeepout" color="4" fill="11" visible="no" active="no"/>
<layer number="40" name="bKeepout" color="1" fill="11" visible="no" active="no"/>
<layer number="41" name="tRestrict" color="4" fill="10" visible="no" active="no"/>
<layer number="42" name="bRestrict" color="1" fill="10" visible="no" active="no"/>
<layer number="43" name="vRestrict" color="2" fill="10" visible="no" active="no"/>
<layer number="44" name="Drills" color="7" fill="1" visible="no" active="no"/>
<layer number="45" name="Holes" color="7" fill="1" visible="no" active="no"/>
<layer number="46" name="Milling" color="3" fill="1" visible="no" active="no"/>
<layer number="47" name="Measures" color="7" fill="1" visible="no" active="no"/>
<layer number="48" name="Document" color="7" fill="1" visible="no" active="no"/>
<layer number="49" name="Reference" color="7" fill="1" visible="no" active="no"/>
<layer number="50" name="dxf" color="7" fill="1" visible="no" active="no"/>
<layer number="51" name="tDocu" color="14" fill="1" visible="no" active="no"/>
<layer number="52" name="bDocu" color="7" fill="1" visible="no" active="no"/>
<layer number="53" name="tGND_GNDA" color="7" fill="9" visible="no" active="no"/>
<layer number="54" name="bGND_GNDA" color="1" fill="9" visible="no" active="no"/>
<layer number="56" name="wert" color="7" fill="1" visible="no" active="no"/>
<layer number="57" name="tCAD" color="7" fill="1" visible="no" active="no"/>
<layer number="59" name="tCarbon" color="7" fill="1" visible="no" active="no"/>
<layer number="60" name="bCarbon" color="7" fill="1" visible="no" active="no"/>
<layer number="88" name="SimResults" color="9" fill="1" visible="yes" active="yes"/>
<layer number="89" name="SimProbes" color="9" fill="1" visible="yes" active="yes"/>
<layer number="90" name="Modules" color="5" fill="1" visible="yes" active="yes"/>
<layer number="91" name="Nets" color="2" fill="1" visible="yes" active="yes"/>
<layer number="92" name="Busses" color="1" fill="1" visible="yes" active="yes"/>
<layer number="93" name="Pins" color="2" fill="1" visible="no" active="yes"/>
<layer number="94" name="Symbols" color="4" fill="1" visible="yes" active="yes"/>
<layer number="95" name="Names" color="7" fill="1" visible="yes" active="yes"/>
<layer number="96" name="Values" color="7" fill="1" visible="yes" active="yes"/>
<layer number="97" name="Info" color="7" fill="1" visible="yes" active="yes"/>
<layer number="98" name="Guide" color="6" fill="1" visible="yes" active="yes"/>
<layer number="99" name="SpiceOrder" color="7" fill="1" visible="yes" active="yes"/>
<layer number="100" name="Muster" color="7" fill="1" visible="no" active="no"/>
<layer number="101" name="Patch_Top" color="12" fill="4" visible="yes" active="yes"/>
<layer number="102" name="Vscore" color="7" fill="1" visible="yes" active="yes"/>
<layer number="103" name="tMap" color="7" fill="1" visible="yes" active="yes"/>
<layer number="104" name="Name" color="16" fill="1" visible="yes" active="yes"/>
<layer number="105" name="tPlate" color="7" fill="1" visible="yes" active="yes"/>
<layer number="106" name="bPlate" color="7" fill="1" visible="yes" active="yes"/>
<layer number="107" name="Crop" color="7" fill="1" visible="yes" active="yes"/>
<layer number="108" name="tplace-old" color="10" fill="1" visible="yes" active="yes"/>
<layer number="109" name="ref-old" color="11" fill="1" visible="yes" active="yes"/>
<layer number="110" name="fp0" color="7" fill="1" visible="yes" active="yes"/>
<layer number="111" name="LPC17xx" color="7" fill="1" visible="yes" active="yes"/>
<layer number="112" name="tSilk" color="7" fill="1" visible="yes" active="yes"/>
<layer number="113" name="IDFDebug" color="4" fill="1" visible="yes" active="yes"/>
<layer number="114" name="Badge_Outline" color="7" fill="1" visible="yes" active="yes"/>
<layer number="115" name="ReferenceISLANDS" color="7" fill="1" visible="yes" active="yes"/>
<layer number="116" name="Patch_BOT" color="9" fill="4" visible="yes" active="yes"/>
<layer number="117" name="BACKMAAT1" color="7" fill="1" visible="yes" active="yes"/>
<layer number="118" name="Rect_Pads" color="7" fill="1" visible="yes" active="yes"/>
<layer number="119" name="KAP_TEKEN" color="7" fill="1" visible="yes" active="yes"/>
<layer number="120" name="KAP_MAAT1" color="7" fill="1" visible="yes" active="yes"/>
<layer number="121" name="_tsilk" color="7" fill="1" visible="yes" active="yes"/>
<layer number="122" name="_bsilk" color="7" fill="1" visible="yes" active="yes"/>
<layer number="123" name="tTestmark" color="7" fill="1" visible="yes" active="yes"/>
<layer number="124" name="bTestmark" color="7" fill="1" visible="yes" active="yes"/>
<layer number="125" name="_tNames" color="7" fill="1" visible="yes" active="yes"/>
<layer number="126" name="_bNames" color="7" fill="1" visible="yes" active="yes"/>
<layer number="127" name="_tValues" color="7" fill="1" visible="yes" active="yes"/>
<layer number="128" name="_bValues" color="7" fill="1" visible="yes" active="yes"/>
<layer number="129" name="Mask" color="7" fill="1" visible="yes" active="yes"/>
<layer number="130" name="SMDSTROOK" color="7" fill="1" visible="yes" active="yes"/>
<layer number="131" name="tAdjust" color="7" fill="1" visible="yes" active="yes"/>
<layer number="132" name="bAdjust" color="7" fill="1" visible="yes" active="yes"/>
<layer number="133" name="bottom_silk" color="7" fill="1" visible="yes" active="yes"/>
<layer number="134" name="silk_top" color="7" fill="1" visible="no" active="no"/>
<layer number="135" name="silk_bottom" color="7" fill="1" visible="no" active="no"/>
<layer number="136" name="silktop" color="7" fill="1" visible="yes" active="yes"/>
<layer number="137" name="silkbottom" color="7" fill="1" visible="yes" active="yes"/>
<layer number="144" name="Drill_legend" color="7" fill="1" visible="yes" active="yes"/>
<layer number="145" name="DrillLegend_01-16" color="7" fill="1" visible="yes" active="yes"/>
<layer number="146" name="DrillLegend_01-20" color="7" fill="1" visible="yes" active="yes"/>
<layer number="150" name="Notes" color="7" fill="1" visible="yes" active="yes"/>
<layer number="151" name="HeatSink" color="7" fill="1" visible="yes" active="yes"/>
<layer number="152" name="_bDocu" color="7" fill="1" visible="yes" active="yes"/>
<layer number="153" name="FabDoc1" color="7" fill="1" visible="yes" active="yes"/>
<layer number="154" name="FabDoc2" color="7" fill="1" visible="yes" active="yes"/>
<layer number="155" name="FabDoc3" color="7" fill="1" visible="yes" active="yes"/>
<layer number="199" name="Contour" color="7" fill="1" visible="yes" active="yes"/>
<layer number="200" name="200bmp" color="1" fill="10" visible="yes" active="yes"/>
<layer number="201" name="201bmp" color="2" fill="10" visible="yes" active="yes"/>
<layer number="202" name="202bmp" color="3" fill="10" visible="yes" active="yes"/>
<layer number="203" name="203bmp" color="4" fill="10" visible="yes" active="yes"/>
<layer number="204" name="204bmp" color="5" fill="10" visible="yes" active="yes"/>
<layer number="205" name="205bmp" color="6" fill="10" visible="yes" active="yes"/>
<layer number="206" name="206bmp" color="7" fill="10" visible="yes" active="yes"/>
<layer number="207" name="207bmp" color="8" fill="10" visible="yes" active="yes"/>
<layer number="208" name="208bmp" color="9" fill="10" visible="yes" active="yes"/>
<layer number="209" name="209bmp" color="7" fill="1" visible="yes" active="yes"/>
<layer number="210" name="210bmp" color="7" fill="1" visible="yes" active="yes"/>
<layer number="211" name="211bmp" color="7" fill="1" visible="yes" active="yes"/>
<layer number="212" name="212bmp" color="7" fill="1" visible="yes" active="yes"/>
<layer number="213" name="213bmp" color="7" fill="1" visible="yes" active="yes"/>
<layer number="214" name="214bmp" color="7" fill="1" visible="yes" active="yes"/>
<layer number="215" name="215bmp" color="7" fill="1" visible="yes" active="yes"/>
<layer number="216" name="216bmp" color="7" fill="1" visible="yes" active="yes"/>
<layer number="217" name="217bmp" color="18" fill="1" visible="no" active="no"/>
<layer number="218" name="218bmp" color="19" fill="1" visible="no" active="no"/>
<layer number="219" name="219bmp" color="20" fill="1" visible="no" active="no"/>
<layer number="220" name="220bmp" color="21" fill="1" visible="no" active="no"/>
<layer number="221" name="221bmp" color="22" fill="1" visible="no" active="no"/>
<layer number="222" name="222bmp" color="23" fill="1" visible="no" active="no"/>
<layer number="223" name="223bmp" color="24" fill="1" visible="no" active="no"/>
<layer number="224" name="224bmp" color="25" fill="1" visible="no" active="no"/>
<layer number="225" name="225bmp" color="7" fill="1" visible="yes" active="yes"/>
<layer number="226" name="226bmp" color="7" fill="1" visible="yes" active="yes"/>
<layer number="227" name="227bmp" color="7" fill="1" visible="yes" active="yes"/>
<layer number="228" name="228bmp" color="7" fill="1" visible="yes" active="yes"/>
<layer number="229" name="229bmp" color="7" fill="1" visible="yes" active="yes"/>
<layer number="230" name="230bmp" color="7" fill="1" visible="yes" active="yes"/>
<layer number="231" name="231bmp" color="7" fill="1" visible="yes" active="yes"/>
<layer number="232" name="Eagle3D_PG2" color="7" fill="1" visible="yes" active="yes"/>
<layer number="233" name="Eagle3D_PG3" color="7" fill="1" visible="yes" active="yes"/>
<layer number="248" name="Housing" color="7" fill="1" visible="yes" active="yes"/>
<layer number="249" name="Edge" color="7" fill="1" visible="yes" active="yes"/>
<layer number="250" name="Descript" color="3" fill="1" visible="no" active="no"/>
<layer number="251" name="SMDround" color="12" fill="11" visible="no" active="no"/>
<layer number="254" name="cooling" color="7" fill="1" visible="yes" active="yes"/>
<layer number="255" name="routoute" color="7" fill="1" visible="yes" active="yes"/>
</layers>
<schematic xreflabel="%F%N/%S.%C%R" xrefpart="/%S.%C%R">
<libraries>
<library name="SparkFun-Connectors" urn="urn:adsk.eagle:library:513">
<description>&lt;h3&gt;SparkFun Connectors&lt;/h3&gt;
This library contains electrically-functional connectors. 
&lt;br&gt;
&lt;br&gt;
We've spent an enormous amount of time creating and checking these footprints and parts, but it is &lt;b&gt; the end user's responsibility&lt;/b&gt; to ensure correctness and suitablity for a given componet or application. 
&lt;br&gt;
&lt;br&gt;If you enjoy using this library, please buy one of our products at &lt;a href=" www.sparkfun.com"&gt;SparkFun.com&lt;/a&gt;.
&lt;br&gt;
&lt;br&gt;
&lt;b&gt;Licensing:&lt;/b&gt; Creative Commons ShareAlike 4.0 International - https://creativecommons.org/licenses/by-sa/4.0/ 
&lt;br&gt;
&lt;br&gt;
You are welcome to use this library for commercial purposes. For attribution, we ask that when you begin to sell your device using our footprint, you email us with a link to the product being sold. We want bragging rights that we helped (in a very small part) to create your 8th world wonder. We would like the opportunity to feature your device on our homepage.</description>
<packages>
<package name="1X01_LONGPAD" urn="urn:adsk.eagle:footprint:37641/1" library_version="1">
<description>&lt;h3&gt;Plated Through Hole - Long Pad&lt;/h3&gt;
&lt;p&gt;Specifications:
&lt;ul&gt;&lt;li&gt;Pin count:1&lt;/li&gt;
&lt;li&gt;Pin pitch:0.1"&lt;/li&gt;
&lt;/ul&gt;&lt;/p&gt;
&lt;p&gt;Example device(s):
&lt;ul&gt;&lt;li&gt;CONN_01&lt;/li&gt;
&lt;/ul&gt;&lt;/p&gt;</description>
<wire x1="-1.27" y1="0.635" x2="-1.27" y2="-0.635" width="0.2032" layer="21"/>
<wire x1="1.27" y1="0.635" x2="1.27" y2="-0.635" width="0.2032" layer="21"/>
<pad name="1" x="0" y="0" drill="1.1176" diameter="1.8796" shape="long" rot="R90"/>
<text x="-1.27" y="2.032" size="0.6096" layer="25" font="vector" ratio="20">&gt;NAME</text>
<text x="-1.27" y="-2.667" size="0.6096" layer="27" font="vector" ratio="20">&gt;VALUE</text>
<rectangle x1="-0.254" y1="-0.254" x2="0.254" y2="0.254" layer="51"/>
</package>
<package name="1X01" urn="urn:adsk.eagle:footprint:37642/1" library_version="1">
<description>&lt;h3&gt;Plated Through Hole&lt;/h3&gt;
&lt;p&gt;Specifications:
&lt;ul&gt;&lt;li&gt;Pin count:1&lt;/li&gt;
&lt;li&gt;Pin pitch:0.1"&lt;/li&gt;
&lt;/ul&gt;&lt;/p&gt;
&lt;p&gt;Example device(s):
&lt;ul&gt;&lt;li&gt;CONN_01&lt;/li&gt;
&lt;/ul&gt;&lt;/p&gt;</description>
<wire x1="1.27" y1="0.635" x2="0.635" y2="1.27" width="0.2032" layer="21"/>
<wire x1="0.635" y1="1.27" x2="-0.635" y2="1.27" width="0.2032" layer="21"/>
<wire x1="-0.635" y1="1.27" x2="-1.27" y2="0.635" width="0.2032" layer="21"/>
<wire x1="-1.27" y1="0.635" x2="-1.27" y2="-0.635" width="0.2032" layer="21"/>
<wire x1="-1.27" y1="-0.635" x2="-0.635" y2="-1.27" width="0.2032" layer="21"/>
<wire x1="-0.635" y1="-1.27" x2="0.635" y2="-1.27" width="0.2032" layer="21"/>
<wire x1="0.635" y1="-1.27" x2="1.27" y2="-0.635" width="0.2032" layer="21"/>
<wire x1="1.27" y1="-0.635" x2="1.27" y2="0.635" width="0.2032" layer="21"/>
<pad name="1" x="0" y="0" drill="1.016" diameter="1.8796" rot="R90"/>
<text x="-1.27" y="1.397" size="0.6096" layer="25" font="vector" ratio="20">&gt;NAME</text>
<text x="-1.27" y="-1.524" size="0.6096" layer="27" font="vector" ratio="20" align="top-left">&gt;VALUE</text>
<rectangle x1="-0.254" y1="-0.254" x2="0.254" y2="0.254" layer="51"/>
</package>
<package name="1X01_2MM" urn="urn:adsk.eagle:footprint:37643/1" library_version="1">
<description>&lt;h3&gt;Plated Through Hole - 2mm&lt;/h3&gt;
&lt;p&gt;Specifications:
&lt;ul&gt;&lt;li&gt;Pin count:1&lt;/li&gt;
&lt;/ul&gt;&lt;/p&gt;
&lt;p&gt;Example device(s):
&lt;ul&gt;&lt;li&gt;CONN_01&lt;/li&gt;
&lt;/ul&gt;&lt;/p&gt;</description>
<pad name="1" x="0" y="0" drill="2" diameter="3.302" rot="R90"/>
<text x="-1.651" y="1.778" size="0.6096" layer="25" font="vector" ratio="20">&gt;NAME</text>
<text x="-1.651" y="-2.413" size="0.6096" layer="27" font="vector" ratio="20">&gt;VALUE</text>
</package>
<package name="1X01_OFFSET" urn="urn:adsk.eagle:footprint:37644/1" library_version="1">
<description>&lt;h3&gt;Plated Through Hole - Long Pad w/ Offset Hole&lt;/h3&gt;
&lt;p&gt;Specifications:
&lt;ul&gt;&lt;li&gt;Pin count:1&lt;/li&gt;
&lt;/ul&gt;&lt;/p&gt;
&lt;p&gt;Example device(s):
&lt;ul&gt;&lt;li&gt;CONN_01&lt;/li&gt;
&lt;/ul&gt;&lt;/p&gt;</description>
<wire x1="-1.27" y1="0.635" x2="-1.27" y2="-0.635" width="0.2032" layer="21"/>
<wire x1="-1.27" y1="-0.635" x2="-0.635" y2="-1.27" width="0.2032" layer="21"/>
<wire x1="-0.635" y1="-1.27" x2="0.635" y2="-1.27" width="0.2032" layer="21"/>
<wire x1="0.635" y1="-1.27" x2="1.27" y2="-0.635" width="0.2032" layer="21"/>
<wire x1="1.27" y1="-0.635" x2="1.27" y2="0.635" width="0.2032" layer="21"/>
<pad name="1" x="0" y="0" drill="1.1176" diameter="1.8796" shape="offset" rot="R90"/>
<text x="-1.27" y="3.048" size="0.6096" layer="25" font="vector" ratio="20">&gt;NAME</text>
<text x="-1.27" y="-2.032" size="0.6096" layer="27" font="vector" ratio="20">&gt;VALUE</text>
<rectangle x1="-0.254" y1="-0.254" x2="0.254" y2="0.254" layer="51"/>
</package>
<package name="1X01_POGOPIN_HOLE_0.061_DIA" urn="urn:adsk.eagle:footprint:37645/1" library_version="1">
<description>&lt;h3&gt;Pogo Pin - 0.061"&lt;/h3&gt;
&lt;p&gt;Specifications:
&lt;ul&gt;&lt;li&gt;Pin count:1&lt;/li&gt;
&lt;li&gt;Pin pitch:0.061"&lt;/li&gt;
&lt;/ul&gt;&lt;/p&gt;
&lt;p&gt;Example device(s):
&lt;ul&gt;&lt;li&gt;CONN_01&lt;/li&gt;
&lt;/ul&gt;&lt;/p&gt;</description>
<circle x="0" y="0" radius="0.635" width="0.127" layer="51"/>
<pad name="1" x="0" y="0" drill="0.9" diameter="0.8128" rot="R90" thermals="no"/>
<hole x="0" y="0" drill="1.5494"/>
<text x="-1.27" y="1.143" size="0.6096" layer="25" font="vector" ratio="20">&gt;NAME</text>
<text x="-1.27" y="-1.778" size="0.6096" layer="27" font="vector" ratio="20">&gt;VALUE</text>
</package>
<package name="1X01_POGOPIN_HOLE_0.58_DIA" urn="urn:adsk.eagle:footprint:37646/1" library_version="1">
<description>&lt;h3&gt;Pogo Pin Hole - 0.58" &lt;/h3&gt;
&lt;p&gt;Specifications:
&lt;ul&gt;&lt;li&gt;Pin count:1&lt;/li&gt;
&lt;li&gt;Pin pitch:0.58"&lt;/li&gt;
&lt;/ul&gt;&lt;/p&gt;
&lt;p&gt;Example device(s):
&lt;ul&gt;&lt;li&gt;CONN_01&lt;/li&gt;
&lt;/ul&gt;&lt;/p&gt;</description>
<circle x="0" y="0" radius="0.635" width="0.127" layer="51"/>
<pad name="1" x="0" y="0" drill="0.9" diameter="0.8128" rot="R90" thermals="no"/>
<hole x="0" y="0" drill="1.4732"/>
<text x="-1.27" y="1.143" size="0.6096" layer="25" font="vector" ratio="20">&gt;NAME</text>
<text x="-1.27" y="-1.778" size="0.6096" layer="27" font="vector" ratio="20">&gt;VALUE</text>
</package>
<package name="SNAP-FEMALE" urn="urn:adsk.eagle:footprint:37647/1" library_version="1">
<description>&lt;h3&gt;Sew-On Fabric Snap - Female&lt;/h3&gt;
Equivalent to size #1/0 snap. 
&lt;p&gt;Specifications:
&lt;ul&gt;&lt;li&gt;Pin count: 1&lt;/li&gt;
&lt;li&gt;Area:8mm&lt;/li&gt;
&lt;/ul&gt;&lt;/p&gt;
&lt;p&gt;Example device(s):
&lt;ul&gt;&lt;li&gt;CONN_01&lt;/li&gt;
&lt;/ul&gt;&lt;/p&gt;</description>
<pad name="1" x="0" y="0" drill="2.921" diameter="4.572"/>
<polygon width="0.254" layer="1">
<vertex x="-4.0005" y="0" curve="-89.997136"/>
<vertex x="0" y="4.0005" curve="-90.002865"/>
<vertex x="4.0005" y="0" curve="-89.997136"/>
<vertex x="0" y="-4.0005" curve="-89.997136"/>
</polygon>
<polygon width="0.3556" layer="29">
<vertex x="-4.0005" y="0" curve="-90.002865"/>
<vertex x="0" y="4.0005" curve="-90.002865"/>
<vertex x="4.0005" y="0" curve="-89.997136"/>
<vertex x="0" y="-4.0005" curve="-89.997136"/>
</polygon>
<polygon width="0.3556" layer="31">
<vertex x="-4.0005" y="0" curve="-89.997136"/>
<vertex x="0" y="4.0005" curve="-90.002865"/>
<vertex x="4.0005" y="0" curve="-89.997136"/>
<vertex x="0" y="-4.0005" curve="-89.997136"/>
</polygon>
<polygon width="0.3556" layer="41">
<vertex x="-4.0005" y="0" curve="-89.997136"/>
<vertex x="0" y="4.0005" curve="-90.002865"/>
<vertex x="4.0005" y="0" curve="-89.997136"/>
<vertex x="0" y="-4.0005" curve="-89.997136"/>
</polygon>
<text x="-1.27" y="4.318" size="0.6096" layer="25" font="vector" ratio="20">&gt;NAME</text>
<text x="-1.27" y="-4.953" size="0.6096" layer="27" font="vector" ratio="20">&gt;VALUE</text>
</package>
<package name="SNAP-MALE" urn="urn:adsk.eagle:footprint:37648/1" library_version="1">
<description>&lt;h3&gt;Sew-On Fabric Snap - Male&lt;/h3&gt;
Equivalent to size #1/0 snap. 
&lt;p&gt;Specifications:
&lt;ul&gt;&lt;li&gt;Pin count: 1&lt;/li&gt;
&lt;li&gt;Area:8mm&lt;/li&gt;
&lt;/ul&gt;&lt;/p&gt;
&lt;p&gt;Example device(s):
&lt;ul&gt;&lt;li&gt;CONN_01&lt;/li&gt;
&lt;/ul&gt;&lt;/p&gt;</description>
<smd name="2" x="0" y="0" dx="7.62" dy="7.62" layer="1" roundness="100"/>
<text x="-1.524" y="4.064" size="0.6096" layer="25" font="vector" ratio="20">&gt;NAME</text>
<text x="-1.651" y="-4.826" size="0.6096" layer="27" font="vector" ratio="20">&gt;VALUE</text>
</package>
<package name="SPRING-CONNECTOR" urn="urn:adsk.eagle:footprint:37649/1" library_version="1">
<description>&lt;h3&gt;Spring Connector&lt;/h3&gt;
&lt;p&gt;Specifications:
&lt;ul&gt;&lt;li&gt;Pin count: 1&lt;/li&gt;
&lt;li&gt;Area:0.25"&lt;/li&gt;
&lt;/ul&gt;&lt;/p&gt;
&lt;p&gt;Example device(s):
&lt;ul&gt;&lt;li&gt;CONN_01&lt;/li&gt;
&lt;/ul&gt;&lt;/p&gt;</description>
<smd name="P$2" x="0" y="0" dx="7.112" dy="7.112" layer="1" roundness="100"/>
<text x="-1.27" y="3.81" size="0.6096" layer="25" font="vector" ratio="20">&gt;NAME</text>
<text x="-1.524" y="-4.572" size="0.6096" layer="27" font="vector" ratio="20">&gt;VALUE</text>
</package>
<package name="1X01NS_KIT" urn="urn:adsk.eagle:footprint:37650/1" library_version="1">
<description>&lt;h3&gt;Plated Through Hole - No Silk Outline Kit Version&lt;/h3&gt;
&lt;p&gt; Mask on only one side to make soldering in kits easier.
&lt;p&gt;Specifications:
&lt;ul&gt;&lt;li&gt;Pin count:1&lt;/li&gt;
&lt;li&gt;Pin pitch:0.1"&lt;/li&gt;
&lt;/ul&gt;&lt;/p&gt;
&lt;p&gt;Example device(s):
&lt;ul&gt;&lt;li&gt;CONN_01&lt;/li&gt;
&lt;/ul&gt;&lt;/p&gt;</description>
<pad name="1" x="0" y="0" drill="1.016" diameter="1.8796" rot="R90" stop="no"/>
<circle x="0" y="0" radius="0.508" width="0" layer="29"/>
<circle x="0" y="0" radius="0.9398" width="0" layer="30"/>
<text x="-1.27" y="1.143" size="0.6096" layer="25" font="vector" ratio="20">&gt;NAME</text>
<text x="-1.27" y="-1.016" size="0.6096" layer="27" font="vector" ratio="20" align="top-left">&gt;VALUE</text>
</package>
<package name="1X01_NO_SILK" urn="urn:adsk.eagle:footprint:37651/1" library_version="1">
<description>&lt;h3&gt;Plated Through Hole - No Silk Outline&lt;/h3&gt;
&lt;p&gt;Specifications:
&lt;ul&gt;&lt;li&gt;Pin count:1&lt;/li&gt;
&lt;li&gt;Pin pitch:0.1"&lt;/li&gt;
&lt;/ul&gt;&lt;/p&gt;
&lt;p&gt;Example device(s):
&lt;ul&gt;&lt;li&gt;CONN_01&lt;/li&gt;
&lt;/ul&gt;&lt;/p&gt;</description>
<pad name="1" x="0" y="0" drill="1.016" diameter="1.8796" rot="R90"/>
<text x="-1.27" y="1.143" size="0.6096" layer="25" font="vector" ratio="20">&gt;NAME</text>
<text x="-1.27" y="-1.778" size="0.6096" layer="27" font="vector" ratio="20">&gt;VALUE</text>
<rectangle x1="-0.254" y1="-0.254" x2="0.254" y2="0.254" layer="51"/>
</package>
<package name="SMTSO-256-ET-0.165DIA" urn="urn:adsk.eagle:footprint:37652/1" library_version="1">
<description>&lt;h3&gt;SMTSO-256-ET Flush Mount Nut&lt;/h3&gt;
.165 drill
&lt;br&gt;
Fits 4-40 Screws. 
&lt;p&gt;Specifications:
&lt;ul&gt;&lt;li&gt;Pin count: 1&lt;/li&gt;
&lt;/ul&gt;&lt;/p&gt;
&lt;p&gt;Example device(s):
&lt;ul&gt;&lt;li&gt;CONN_01&lt;/li&gt;
&lt;/ul&gt;&lt;/p&gt;</description>
<circle x="0" y="0" radius="1.016" width="0.127" layer="51"/>
<wire x1="-1.016" y1="2.286" x2="-2.286" y2="1.016" width="1.016" layer="31" curve="42.075022"/>
<wire x1="2.286" y1="1.016" x2="1.016" y2="2.286" width="1.016" layer="31" curve="42.075022"/>
<wire x1="1.016" y1="-2.286" x2="2.286" y2="-1.016" width="1.016" layer="31" curve="42.075022"/>
<wire x1="-2.286" y1="-1.016" x2="-1.016" y2="-2.286" width="1.016" layer="31" curve="42.075022"/>
<pad name="P$1" x="0" y="0" drill="4.191" diameter="6.1976"/>
<text x="-1.397" y="3.302" size="0.6096" layer="25" font="vector" ratio="20">&gt;NAME</text>
<text x="-1.524" y="-3.937" size="0.6096" layer="27" font="vector" ratio="20">&gt;VALUE</text>
</package>
</packages>
<packages3d>
<package3d name="1X01_LONGPAD" urn="urn:adsk.eagle:package:38030/1" type="box" library_version="1">
<description>Plated Through Hole - Long Pad
Specifications:
Pin count:1
Pin pitch:0.1"

Example device(s):
CONN_01
</description>
<packageinstances>
<packageinstance name="1X01_LONGPAD"/>
</packageinstances>
</package3d>
<package3d name="1X01" urn="urn:adsk.eagle:package:38028/1" type="box" library_version="1">
<description>Plated Through Hole
Specifications:
Pin count:1
Pin pitch:0.1"

Example device(s):
CONN_01
</description>
<packageinstances>
<packageinstance name="1X01"/>
</packageinstances>
</package3d>
<package3d name="1X01_2MM" urn="urn:adsk.eagle:package:38029/1" type="box" library_version="1">
<description>Plated Through Hole - 2mm
Specifications:
Pin count:1

Example device(s):
CONN_01
</description>
<packageinstances>
<packageinstance name="1X01_2MM"/>
</packageinstances>
</package3d>
<package3d name="1X01_OFFSET" urn="urn:adsk.eagle:package:38035/1" type="box" library_version="1">
<description>Plated Through Hole - Long Pad w/ Offset Hole
Specifications:
Pin count:1

Example device(s):
CONN_01
</description>
<packageinstances>
<packageinstance name="1X01_OFFSET"/>
</packageinstances>
</package3d>
<package3d name="1X01_POGOPIN_HOLE_0.061_DIA" urn="urn:adsk.eagle:package:38036/1" type="box" library_version="1">
<description>Pogo Pin - 0.061"
Specifications:
Pin count:1
Pin pitch:0.061"

Example device(s):
CONN_01
</description>
<packageinstances>
<packageinstance name="1X01_POGOPIN_HOLE_0.061_DIA"/>
</packageinstances>
</package3d>
<package3d name="1X01_POGOPIN_HOLE_0.58_DIA" urn="urn:adsk.eagle:package:38031/1" type="box" library_version="1">
<description>Pogo Pin Hole - 0.58" 
Specifications:
Pin count:1
Pin pitch:0.58"

Example device(s):
CONN_01
</description>
<packageinstances>
<packageinstance name="1X01_POGOPIN_HOLE_0.58_DIA"/>
</packageinstances>
</package3d>
<package3d name="SNAP-FEMALE" urn="urn:adsk.eagle:package:38032/1" type="box" library_version="1">
<description>Sew-On Fabric Snap - Female
Equivalent to size #1/0 snap. 
Specifications:
Pin count: 1
Area:8mm

Example device(s):
CONN_01
</description>
<packageinstances>
<packageinstance name="SNAP-FEMALE"/>
</packageinstances>
</package3d>
<package3d name="SNAP-MALE" urn="urn:adsk.eagle:package:38033/1" type="box" library_version="1">
<description>Sew-On Fabric Snap - Male
Equivalent to size #1/0 snap. 
Specifications:
Pin count: 1
Area:8mm

Example device(s):
CONN_01
</description>
<packageinstances>
<packageinstance name="SNAP-MALE"/>
</packageinstances>
</package3d>
<package3d name="SPRING-CONNECTOR" urn="urn:adsk.eagle:package:38034/1" type="box" library_version="1">
<description>Spring Connector
Specifications:
Pin count: 1
Area:0.25"

Example device(s):
CONN_01
</description>
<packageinstances>
<packageinstance name="SPRING-CONNECTOR"/>
</packageinstances>
</package3d>
<package3d name="1X01NS_KIT" urn="urn:adsk.eagle:package:38038/1" type="box" library_version="1">
<description>Plated Through Hole - No Silk Outline Kit Version
 Mask on only one side to make soldering in kits easier.
Specifications:
Pin count:1
Pin pitch:0.1"

Example device(s):
CONN_01
</description>
<packageinstances>
<packageinstance name="1X01NS_KIT"/>
</packageinstances>
</package3d>
<package3d name="1X01_NO_SILK" urn="urn:adsk.eagle:package:38041/1" type="box" library_version="1">
<description>Plated Through Hole - No Silk Outline
Specifications:
Pin count:1
Pin pitch:0.1"

Example device(s):
CONN_01
</description>
<packageinstances>
<packageinstance name="1X01_NO_SILK"/>
</packageinstances>
</package3d>
<package3d name="SMTSO-256-ET-0.165DIA" urn="urn:adsk.eagle:package:38037/1" type="box" library_version="1">
<description>SMTSO-256-ET Flush Mount Nut
.165 drill

Fits 4-40 Screws. 
Specifications:
Pin count: 1

Example device(s):
CONN_01
</description>
<packageinstances>
<packageinstance name="SMTSO-256-ET-0.165DIA"/>
</packageinstances>
</package3d>
</packages3d>
<symbols>
<symbol name="CONN_01" urn="urn:adsk.eagle:symbol:37640/1" library_version="1">
<description>&lt;h3&gt;1 Pin Connection&lt;/h3&gt;</description>
<wire x1="3.81" y1="-2.54" x2="-2.54" y2="-2.54" width="0.4064" layer="94"/>
<wire x1="1.27" y1="0" x2="2.54" y2="0" width="0.6096" layer="94"/>
<wire x1="-2.54" y1="2.54" x2="-2.54" y2="-2.54" width="0.4064" layer="94"/>
<wire x1="3.81" y1="-2.54" x2="3.81" y2="2.54" width="0.4064" layer="94"/>
<wire x1="-2.54" y1="2.54" x2="3.81" y2="2.54" width="0.4064" layer="94"/>
<text x="-2.54" y="-4.826" size="1.778" layer="96" font="vector">&gt;VALUE</text>
<text x="-2.54" y="3.048" size="1.778" layer="95" font="vector">&gt;NAME</text>
<pin name="1" x="7.62" y="0" visible="off" length="middle" direction="pas" swaplevel="1" rot="R180"/>
</symbol>
</symbols>
<devicesets>
<deviceset name="CONN_01" urn="urn:adsk.eagle:component:38322/1" prefix="J" uservalue="yes" library_version="1">
<description>&lt;h3&gt;Single connection point. Often used as Generic Header-pin footprint for 0.1 inch spaced/style header connections&lt;/h3&gt;
&lt;p&gt;&lt;/p&gt;

&lt;p&gt;&lt;/p&gt;
On any of the 0.1 inch spaced packages, you can populate with these:
&lt;ul&gt;
&lt;li&gt;&lt;a href="https://www.sparkfun.com/products/116"&gt; Break Away Headers - Straight&lt;/a&gt; (PRT-00116)&lt;/li&gt;
&lt;li&gt;&lt;a href="https://www.sparkfun.com/products/553"&gt; Break Away Male Headers - Right Angle&lt;/a&gt; (PRT-00553)&lt;/li&gt;
&lt;li&gt;&lt;a href="https://www.sparkfun.com/products/115"&gt; Female Headers&lt;/a&gt; (PRT-00115)&lt;/li&gt;
&lt;li&gt;&lt;a href="https://www.sparkfun.com/products/117"&gt; Break Away Headers - Machine Pin&lt;/a&gt; (PRT-00117)&lt;/li&gt;
&lt;li&gt;&lt;a href="https://www.sparkfun.com/products/743"&gt; Break Away Female Headers - Swiss Machine Pin&lt;/a&gt; (PRT-00743)&lt;/li&gt;
&lt;p&gt;&lt;/p&gt;
&lt;/ul&gt;
&lt;p&gt;&lt;/p&gt;
This device is also useful as a general connection point to wire up your design to another part of your project. Our various solder wires solder well into these plated through hole pads.
&lt;ul&gt;
&lt;li&gt;&lt;a href="https://www.sparkfun.com/products/11375"&gt; Hook-Up Wire - Assortment (Stranded, 22 AWG)&lt;/a&gt; (PRT-11375)&lt;/li&gt;
&lt;li&gt;&lt;a href="https://www.sparkfun.com/products/11367"&gt; Hook-Up Wire - Assortment (Solid Core, 22 AWG)&lt;/a&gt; (PRT-11367)&lt;/li&gt;
&lt;li&gt;&lt;a href="https://www.sparkfun.com/categories/141"&gt; View the entire wire category on our website here&lt;/a&gt;&lt;/li&gt;
&lt;p&gt;&lt;/p&gt;
&lt;/ul&gt;

&lt;p&gt;&lt;/p&gt;
&lt;b&gt;Special notes:&lt;/b&gt;
&lt;p&gt; &lt;/p&gt;
SMTSO-256-ET is a "flush mount" nut for a 4-40 screw. We mostly use this on specialty testbeds; it is a nice way to connect hardware to your PCB at an adjustable hieght.
&lt;p&gt;&lt;/p&gt;
Also note, the SNAP packages are for using a snappable style connector. We sell a baggie of snaps and they are also used on two LilyPad designs:
&lt;ul&gt;
&lt;li&gt;&lt;a href="https://www.sparkfun.com/products/11347"&gt; Snap Assortment - 30 pack (male and female)&lt;/a&gt; (DEV-11347)&lt;/li&gt;
&lt;li&gt;&lt;a href="https://www.sparkfun.com/products/10941"&gt;LilyPad Arduino SimpleSnap&lt;/a&gt; (DEV-10941)&lt;/li&gt;
&lt;li&gt;&lt;a href="https://www.sparkfun.com/products/10940"&gt; LilyPad SimpleSnap Protoboard&lt;/a&gt; (DEV-10940)&lt;/li&gt;
&lt;p&gt;&lt;/p&gt;
&lt;/ul&gt;</description>
<gates>
<gate name="G$1" symbol="CONN_01" x="0" y="0"/>
</gates>
<devices>
<device name="PTH_LONGPAD" package="1X01_LONGPAD">
<connects>
<connect gate="G$1" pin="1" pad="1"/>
</connects>
<package3dinstances>
<package3dinstance package3d_urn="urn:adsk.eagle:package:38030/1"/>
</package3dinstances>
<technologies>
<technology name=""/>
</technologies>
</device>
<device name="" package="1X01">
<connects>
<connect gate="G$1" pin="1" pad="1"/>
</connects>
<package3dinstances>
<package3dinstance package3d_urn="urn:adsk.eagle:package:38028/1"/>
</package3dinstances>
<technologies>
<technology name=""/>
</technologies>
</device>
<device name="PTH_2MM" package="1X01_2MM">
<connects>
<connect gate="G$1" pin="1" pad="1"/>
</connects>
<package3dinstances>
<package3dinstance package3d_urn="urn:adsk.eagle:package:38029/1"/>
</package3dinstances>
<technologies>
<technology name=""/>
</technologies>
</device>
<device name="OFFSET" package="1X01_OFFSET">
<connects>
<connect gate="G$1" pin="1" pad="1"/>
</connects>
<package3dinstances>
<package3dinstance package3d_urn="urn:adsk.eagle:package:38035/1"/>
</package3dinstances>
<technologies>
<technology name=""/>
</technologies>
</device>
<device name="POGOPIN_HOLE_LARGE" package="1X01_POGOPIN_HOLE_0.061_DIA">
<connects>
<connect gate="G$1" pin="1" pad="1"/>
</connects>
<package3dinstances>
<package3dinstance package3d_urn="urn:adsk.eagle:package:38036/1"/>
</package3dinstances>
<technologies>
<technology name=""/>
</technologies>
</device>
<device name="POGOPIN_HOLE_0.58" package="1X01_POGOPIN_HOLE_0.58_DIA">
<connects>
<connect gate="G$1" pin="1" pad="1"/>
</connects>
<package3dinstances>
<package3dinstance package3d_urn="urn:adsk.eagle:package:38031/1"/>
</package3dinstances>
<technologies>
<technology name=""/>
</technologies>
</device>
<device name="SNAP-FEMALE" package="SNAP-FEMALE">
<connects>
<connect gate="G$1" pin="1" pad="1"/>
</connects>
<package3dinstances>
<package3dinstance package3d_urn="urn:adsk.eagle:package:38032/1"/>
</package3dinstances>
<technologies>
<technology name=""/>
</technologies>
</device>
<device name="SNAP-MALE" package="SNAP-MALE">
<connects>
<connect gate="G$1" pin="1" pad="2"/>
</connects>
<package3dinstances>
<package3dinstance package3d_urn="urn:adsk.eagle:package:38033/1"/>
</package3dinstances>
<technologies>
<technology name=""/>
</technologies>
</device>
<device name="SPRING-CONN" package="SPRING-CONNECTOR">
<connects>
<connect gate="G$1" pin="1" pad="P$2"/>
</connects>
<package3dinstances>
<package3dinstance package3d_urn="urn:adsk.eagle:package:38034/1"/>
</package3dinstances>
<technologies>
<technology name="">
<attribute name="SF_ID" value="PRT-11822" constant="no"/>
</technology>
</technologies>
</device>
<device name="PTH_NO_SILK_KIT" package="1X01NS_KIT">
<connects>
<connect gate="G$1" pin="1" pad="1"/>
</connects>
<package3dinstances>
<package3dinstance package3d_urn="urn:adsk.eagle:package:38038/1"/>
</package3dinstances>
<technologies>
<technology name=""/>
</technologies>
</device>
<device name="PTH_NO_SILK_YES_STOP" package="1X01_NO_SILK">
<connects>
<connect gate="G$1" pin="1" pad="1"/>
</connects>
<package3dinstances>
<package3dinstance package3d_urn="urn:adsk.eagle:package:38041/1"/>
</package3dinstances>
<technologies>
<technology name=""/>
</technologies>
</device>
<device name="SMTSO-256-ET-0.165DIA" package="SMTSO-256-ET-0.165DIA">
<connects>
<connect gate="G$1" pin="1" pad="P$1"/>
</connects>
<package3dinstances>
<package3dinstance package3d_urn="urn:adsk.eagle:package:38037/1"/>
</package3dinstances>
<technologies>
<technology name="">
<attribute name="PROD_ID" value="HW-08694" constant="no"/>
</technology>
</technologies>
</device>
</devices>
</deviceset>
</devicesets>
</library>
<library name="MS580314BA01-00">
<packages>
<package name="XDCR_MS580314BA01-00">
<wire x1="-2.7" y1="3.1" x2="-3.2" y2="2.6" width="0.05" layer="51"/>
<wire x1="-3.2" y1="2.6" x2="-3.2" y2="2" width="0.05" layer="51"/>
<wire x1="-3.2" y1="2" x2="-3.1" y2="1.9" width="0.05" layer="51" curve="-90"/>
<wire x1="-3.1" y1="1.9" x2="-3.2" y2="1.8" width="0.05" layer="51" curve="-90"/>
<wire x1="-3.2" y1="1.8" x2="-3.2" y2="0.75" width="0.05" layer="51"/>
<wire x1="-3.20216875" y1="0.750121875" x2="-3.10216875" y2="0.650121875" width="0.05" layer="51" curve="-90"/>
<wire x1="-3.10216875" y1="0.650090625" x2="-3.20216875" y2="0.550090625" width="0.05" layer="51" curve="-90"/>
<wire x1="-3.2" y1="-2" x2="-3.1" y2="-1.9" width="0.05" layer="51" curve="90"/>
<wire x1="-3.1" y1="-1.9" x2="-3.2" y2="-1.8" width="0.05" layer="51" curve="90"/>
<wire x1="-3.2" y1="-1.8" x2="-3.2" y2="-0.75" width="0.05" layer="51"/>
<wire x1="-3.2" y1="-0.75" x2="-3.1" y2="-0.65" width="0.05" layer="51" curve="90"/>
<wire x1="-3.1" y1="-0.65" x2="-3.2" y2="-0.55" width="0.05" layer="51" curve="90"/>
<wire x1="-3.2" y1="-0.55" x2="-3.2" y2="0.55" width="0.05" layer="51"/>
<wire x1="-3.2" y1="-2" x2="-3.2" y2="-2.6" width="0.05" layer="51"/>
<wire x1="-3.2" y1="-2.6" x2="-2.7" y2="-3.1" width="0.05" layer="51"/>
<wire x1="-2.7" y1="-3.1" x2="2.7" y2="-3.1" width="0.05" layer="51"/>
<wire x1="2.7" y1="-3.1" x2="3.2" y2="-2.6" width="0.05" layer="51"/>
<wire x1="3.2" y1="-2.6" x2="3.2" y2="-2" width="0.05" layer="51"/>
<wire x1="3.2" y1="-2" x2="3.1" y2="-1.9" width="0.05" layer="51" curve="-90"/>
<wire x1="3.1" y1="-1.9" x2="3.2" y2="-1.8" width="0.05" layer="51" curve="-90"/>
<wire x1="3.2" y1="-1.8" x2="3.2" y2="-0.75" width="0.05" layer="51"/>
<wire x1="3.2" y1="-0.75" x2="3.1" y2="-0.65" width="0.05" layer="51" curve="-90"/>
<wire x1="3.1" y1="-0.65" x2="3.2" y2="-0.55" width="0.05" layer="51" curve="-90"/>
<wire x1="3.2" y1="-0.55" x2="3.2" y2="0.55" width="0.05" layer="51"/>
<wire x1="3.2" y1="0.55" x2="3.1" y2="0.65" width="0.05" layer="51" curve="-90"/>
<wire x1="3.1" y1="0.65" x2="3.2" y2="0.75" width="0.05" layer="51" curve="-90"/>
<wire x1="3.2" y1="0.75" x2="3.2" y2="1.8" width="0.05" layer="51"/>
<wire x1="3.2" y1="1.8" x2="3.1" y2="1.9" width="0.05" layer="51" curve="-90"/>
<wire x1="3.1" y1="1.9" x2="3.2" y2="2" width="0.05" layer="51" curve="-90"/>
<wire x1="-2.7" y1="3.1" x2="2.7" y2="3.1" width="0.05" layer="51"/>
<wire x1="2.7" y1="3.1" x2="3.2" y2="2.6" width="0.05" layer="51"/>
<wire x1="3.2" y1="2.6" x2="3.2" y2="2" width="0.05" layer="51"/>
<circle x="2.5" y="-2.8" radius="0.22360625" width="0" layer="51"/>
<text x="-3.007190625" y="4.00958125" size="0.814746875" layer="25">&gt;NAME</text>
<text x="-3.002590625" y="-5.00433125" size="0.813503125" layer="27">&gt;VALUE</text>
<smd name="5" x="-2.67473125" y="1.90116875" dx="2.25" dy="0.9" layer="1"/>
<smd name="6" x="-2.67473125" y="0.65116875" dx="2.25" dy="0.9" layer="1"/>
<smd name="7" x="-2.67473125" y="-0.64883125" dx="2.25" dy="0.9" layer="1"/>
<smd name="8" x="-2.67473125" y="-1.89883125" dx="2.25" dy="0.9" layer="1"/>
<smd name="4" x="2.67528125" y="1.90116875" dx="2.25" dy="0.9" layer="1"/>
<smd name="3" x="2.40028125" y="0.65116875" dx="2.8" dy="0.9" layer="1"/>
<smd name="2" x="2.67528125" y="-0.64883125" dx="2.25" dy="0.9" layer="1"/>
<smd name="1" x="2.67528125" y="-1.89883125" dx="2.25" dy="0.9" layer="1"/>
</package>
</packages>
<symbols>
<symbol name="MS580314BA01-00">
<wire x1="10.16" y1="12.7" x2="10.16" y2="-15.24" width="0.254" layer="94"/>
<wire x1="10.16" y1="-15.24" x2="-10.16" y2="-15.24" width="0.254" layer="94"/>
<wire x1="-10.16" y1="-15.24" x2="-10.16" y2="12.7" width="0.254" layer="94"/>
<wire x1="-10.16" y1="12.7" x2="10.16" y2="12.7" width="0.254" layer="94"/>
<text x="-10.1668" y="15.2502" size="1.779190625" layer="95">&gt;NAME</text>
<text x="-10.1677" y="-20.3355" size="1.77935" layer="96">&gt;VALUE</text>
<pin name="SCLK" x="-15.24" y="2.54" length="middle" direction="in" function="clk"/>
<pin name="!CSB" x="-15.24" y="0" length="middle" direction="in"/>
<pin name="PS" x="-15.24" y="-2.54" length="middle" direction="in"/>
<pin name="SDI/SDA" x="-15.24" y="-5.08" length="middle" direction="in"/>
<pin name="SDO" x="15.24" y="-5.08" length="middle" direction="out" rot="R180"/>
<pin name="VDD" x="15.24" y="10.16" length="middle" direction="pwr" rot="R180"/>
<pin name="GND" x="15.24" y="-12.7" length="middle" direction="pas" rot="R180"/>
</symbol>
</symbols>
<devicesets>
<deviceset name="MS580314BA01-00">
<description>MINIATURE ALTIMETER MODULE</description>
<gates>
<gate name="G$1" symbol="MS580314BA01-00" x="0" y="0"/>
</gates>
<devices>
<device name="" package="XDCR_MS580314BA01-00">
<connects>
<connect gate="G$1" pin="!CSB" pad="3"/>
<connect gate="G$1" pin="GND" pad="2"/>
<connect gate="G$1" pin="PS" pad="6"/>
<connect gate="G$1" pin="SCLK" pad="1"/>
<connect gate="G$1" pin="SDI/SDA" pad="7"/>
<connect gate="G$1" pin="SDO" pad="8"/>
<connect gate="G$1" pin="VDD" pad="5"/>
</connects>
<technologies>
<technology name="">
<attribute name="AVAILABILITY" value="Bad"/>
<attribute name="DESCRIPTION" value=" Miniature Altimeter Module "/>
<attribute name="MF" value="TE"/>
<attribute name="MP" value="MS580314BA01-00"/>
<attribute name="PACKAGE" value="SMD-8 TE Connectivity"/>
<attribute name="PRICE" value="14.95 USD"/>
</technology>
</technologies>
</device>
</devices>
</deviceset>
</devicesets>
</library>
<library name="SparkFun-Capacitors" urn="urn:adsk.eagle:library:510">
<description>&lt;h3&gt;SparkFun Capacitors&lt;/h3&gt;
This library contains capacitors. 
&lt;br&gt;
&lt;br&gt;
We've spent an enormous amount of time creating and checking these footprints and parts, but it is &lt;b&gt; the end user's responsibility&lt;/b&gt; to ensure correctness and suitablity for a given componet or application. 
&lt;br&gt;
&lt;br&gt;If you enjoy using this library, please buy one of our products at &lt;a href=" www.sparkfun.com"&gt;SparkFun.com&lt;/a&gt;.
&lt;br&gt;
&lt;br&gt;
&lt;b&gt;Licensing:&lt;/b&gt; Creative Commons ShareAlike 4.0 International - https://creativecommons.org/licenses/by-sa/4.0/ 
&lt;br&gt;
&lt;br&gt;
You are welcome to use this library for commercial purposes. For attribution, we ask that when you begin to sell your device using our footprint, you email us with a link to the product being sold. We want bragging rights that we helped (in a very small part) to create your 8th world wonder. We would like the opportunity to feature your device on our homepage.</description>
<packages>
<package name="0805" urn="urn:adsk.eagle:footprint:37400/1" library_version="1">
<description>&lt;p&gt;&lt;b&gt;Generic 2012 (0805) package&lt;/b&gt;&lt;/p&gt;
&lt;p&gt;0.2mm courtyard excess rounded to nearest 0.05mm.&lt;/p&gt;</description>
<smd name="1" x="-0.9" y="0" dx="0.8" dy="1.2" layer="1"/>
<smd name="2" x="0.9" y="0" dx="0.8" dy="1.2" layer="1"/>
<text x="0" y="0.889" size="0.6096" layer="25" font="vector" ratio="20" align="bottom-center">&gt;NAME</text>
<text x="0" y="-0.889" size="0.6096" layer="27" font="vector" ratio="20" align="top-center">&gt;VALUE</text>
<wire x1="-1.5" y1="0.8" x2="1.5" y2="0.8" width="0.0508" layer="39"/>
<wire x1="1.5" y1="0.8" x2="1.5" y2="-0.8" width="0.0508" layer="39"/>
<wire x1="1.5" y1="-0.8" x2="-1.5" y2="-0.8" width="0.0508" layer="39"/>
<wire x1="-1.5" y1="-0.8" x2="-1.5" y2="0.8" width="0.0508" layer="39"/>
</package>
</packages>
<packages3d>
<package3d name="0805" urn="urn:adsk.eagle:package:37429/1" type="box" library_version="1">
<description>Generic 2012 (0805) package
0.2mm courtyard excess rounded to nearest 0.05mm.</description>
<packageinstances>
<packageinstance name="0805"/>
</packageinstances>
</package3d>
</packages3d>
<symbols>
<symbol name="CAP" urn="urn:adsk.eagle:symbol:37385/1" library_version="1">
<wire x1="0" y1="2.54" x2="0" y2="2.032" width="0.1524" layer="94"/>
<wire x1="0" y1="0" x2="0" y2="0.508" width="0.1524" layer="94"/>
<text x="1.524" y="2.921" size="1.778" layer="95" font="vector">&gt;NAME</text>
<text x="1.524" y="-2.159" size="1.778" layer="96" font="vector">&gt;VALUE</text>
<rectangle x1="-2.032" y1="0.508" x2="2.032" y2="1.016" layer="94"/>
<rectangle x1="-2.032" y1="1.524" x2="2.032" y2="2.032" layer="94"/>
<pin name="1" x="0" y="5.08" visible="off" length="short" direction="pas" swaplevel="1" rot="R270"/>
<pin name="2" x="0" y="-2.54" visible="off" length="short" direction="pas" swaplevel="1" rot="R90"/>
</symbol>
</symbols>
<devicesets>
<deviceset name="0.33UF/330NF" urn="urn:adsk.eagle:component:37475/1" prefix="C" library_version="1">
<description>&lt;h3&gt;0.33µF/330nF ceramic capacitors&lt;/h3&gt;
&lt;p&gt;A capacitor is a passive two-terminal electrical component used to store electrical energy temporarily in an electric field.&lt;/p&gt;</description>
<gates>
<gate name="G$1" symbol="CAP" x="0" y="0"/>
</gates>
<devices>
<device name="-0805-50V-10%" package="0805">
<connects>
<connect gate="G$1" pin="1" pad="1"/>
<connect gate="G$1" pin="2" pad="2"/>
</connects>
<package3dinstances>
<package3dinstance package3d_urn="urn:adsk.eagle:package:37429/1"/>
</package3dinstances>
<technologies>
<technology name="">
<attribute name="PROD_ID" value="CAP-08469"/>
<attribute name="VALUE" value="0.33µF"/>
</technology>
</technologies>
</device>
</devices>
</deviceset>
</devicesets>
</library>
<library name="SparkFun-Resistors" urn="urn:adsk.eagle:library:532">
<description>&lt;h3&gt;SparkFun Resistors&lt;/h3&gt;
This library contains resistors. Reference designator:R. 
&lt;br&gt;
&lt;br&gt;
We've spent an enormous amount of time creating and checking these footprints and parts, but it is &lt;b&gt; the end user's responsibility&lt;/b&gt; to ensure correctness and suitablity for a given componet or application. 
&lt;br&gt;
&lt;br&gt;If you enjoy using this library, please buy one of our products at &lt;a href=" www.sparkfun.com"&gt;SparkFun.com&lt;/a&gt;.
&lt;br&gt;
&lt;br&gt;
&lt;b&gt;Licensing:&lt;/b&gt; Creative Commons ShareAlike 4.0 International - https://creativecommons.org/licenses/by-sa/4.0/ 
&lt;br&gt;
&lt;br&gt;
You are welcome to use this library for commercial purposes. For attribution, we ask that when you begin to sell your device using our footprint, you email us with a link to the product being sold. We want bragging rights that we helped (in a very small part) to create your 8th world wonder. We would like the opportunity to feature your device on our homepage.</description>
<packages>
<package name="0805" urn="urn:adsk.eagle:footprint:39617/1" library_version="1">
<description>&lt;p&gt;&lt;b&gt;Generic 2012 (0805) package&lt;/b&gt;&lt;/p&gt;
&lt;p&gt;0.2mm courtyard excess rounded to nearest 0.05mm.&lt;/p&gt;</description>
<smd name="1" x="-0.9" y="0" dx="0.8" dy="1.2" layer="1"/>
<smd name="2" x="0.9" y="0" dx="0.8" dy="1.2" layer="1"/>
<text x="0" y="0.889" size="0.6096" layer="25" font="vector" ratio="20" align="bottom-center">&gt;NAME</text>
<text x="0" y="-0.889" size="0.6096" layer="27" font="vector" ratio="20" align="top-center">&gt;VALUE</text>
<wire x1="-1.5" y1="0.8" x2="1.5" y2="0.8" width="0.0508" layer="39"/>
<wire x1="1.5" y1="0.8" x2="1.5" y2="-0.8" width="0.0508" layer="39"/>
<wire x1="1.5" y1="-0.8" x2="-1.5" y2="-0.8" width="0.0508" layer="39"/>
<wire x1="-1.5" y1="-0.8" x2="-1.5" y2="0.8" width="0.0508" layer="39"/>
</package>
</packages>
<packages3d>
<package3d name="0805" urn="urn:adsk.eagle:package:39651/1" type="box" library_version="1">
<description>Generic 2012 (0805) package
0.2mm courtyard excess rounded to nearest 0.05mm.</description>
<packageinstances>
<packageinstance name="0805"/>
</packageinstances>
</package3d>
</packages3d>
<symbols>
<symbol name="RESISTOR" urn="urn:adsk.eagle:symbol:39614/1" library_version="1">
<wire x1="-2.54" y1="0" x2="-2.159" y2="1.016" width="0.1524" layer="94"/>
<wire x1="-2.159" y1="1.016" x2="-1.524" y2="-1.016" width="0.1524" layer="94"/>
<wire x1="-1.524" y1="-1.016" x2="-0.889" y2="1.016" width="0.1524" layer="94"/>
<wire x1="-0.889" y1="1.016" x2="-0.254" y2="-1.016" width="0.1524" layer="94"/>
<wire x1="-0.254" y1="-1.016" x2="0.381" y2="1.016" width="0.1524" layer="94"/>
<wire x1="0.381" y1="1.016" x2="1.016" y2="-1.016" width="0.1524" layer="94"/>
<wire x1="1.016" y1="-1.016" x2="1.651" y2="1.016" width="0.1524" layer="94"/>
<wire x1="1.651" y1="1.016" x2="2.286" y2="-1.016" width="0.1524" layer="94"/>
<wire x1="2.286" y1="-1.016" x2="2.54" y2="0" width="0.1524" layer="94"/>
<text x="0" y="1.524" size="1.778" layer="95" font="vector" align="bottom-center">&gt;NAME</text>
<text x="0" y="-1.524" size="1.778" layer="96" font="vector" align="top-center">&gt;VALUE</text>
<pin name="2" x="5.08" y="0" visible="off" length="short" direction="pas" swaplevel="1" rot="R180"/>
<pin name="1" x="-5.08" y="0" visible="off" length="short" direction="pas" swaplevel="1"/>
</symbol>
</symbols>
<devicesets>
<deviceset name="0.75OHM" urn="urn:adsk.eagle:component:39678/1" prefix="R" library_version="1">
<description>&lt;h3&gt;0.75Ω resistor&lt;/h3&gt;
&lt;p&gt;A resistor is a passive two-terminal electrical component that implements electrical resistance as a circuit element. Resistors act to reduce current flow, and, at the same time, act to lower voltage levels within circuits. - Wikipedia&lt;/p&gt;</description>
<gates>
<gate name="G$1" symbol="RESISTOR" x="0" y="0"/>
</gates>
<devices>
<device name="-0805-1/4W-1%" package="0805">
<connects>
<connect gate="G$1" pin="1" pad="1"/>
<connect gate="G$1" pin="2" pad="2"/>
</connects>
<package3dinstances>
<package3dinstance package3d_urn="urn:adsk.eagle:package:39651/1"/>
</package3dinstances>
<technologies>
<technology name="">
<attribute name="PROD_ID" value="RES-08474"/>
<attribute name="VALUE" value="0.75"/>
</technology>
</technologies>
</device>
</devices>
</deviceset>
</devicesets>
</library>
</libraries>
<attributes>
</attributes>
<variantdefs>
</variantdefs>
<classes>
<class number="0" name="default" width="0" drill="0">
</class>
</classes>
<parts>
<part name="U$1" library="MS580314BA01-00" deviceset="MS580314BA01-00" device=""/>
<part name="C1" library="SparkFun-Capacitors" library_urn="urn:adsk.eagle:library:510" deviceset="0.33UF/330NF" device="-0805-50V-10%" package3d_urn="urn:adsk.eagle:package:37429/1" value="100nF"/>
<part name="J1" library="SparkFun-Connectors" library_urn="urn:adsk.eagle:library:513" deviceset="CONN_01" device="" package3d_urn="urn:adsk.eagle:package:38028/1"/>
<part name="J2" library="SparkFun-Connectors" library_urn="urn:adsk.eagle:library:513" deviceset="CONN_01" device="" package3d_urn="urn:adsk.eagle:package:38028/1"/>
<part name="J3" library="SparkFun-Connectors" library_urn="urn:adsk.eagle:library:513" deviceset="CONN_01" device="" package3d_urn="urn:adsk.eagle:package:38028/1"/>
<part name="J4" library="SparkFun-Connectors" library_urn="urn:adsk.eagle:library:513" deviceset="CONN_01" device="" package3d_urn="urn:adsk.eagle:package:38028/1"/>
<part name="R1" library="SparkFun-Resistors" library_urn="urn:adsk.eagle:library:532" deviceset="0.75OHM" device="-0805-1/4W-1%" package3d_urn="urn:adsk.eagle:package:39651/1" value="10k"/>
<part name="R2" library="SparkFun-Resistors" library_urn="urn:adsk.eagle:library:532" deviceset="0.75OHM" device="-0805-1/4W-1%" package3d_urn="urn:adsk.eagle:package:39651/1" value="10k"/>
<part name="R3" library="SparkFun-Resistors" library_urn="urn:adsk.eagle:library:532" deviceset="0.75OHM" device="-0805-1/4W-1%" package3d_urn="urn:adsk.eagle:package:39651/1" value="2.2k"/>
<part name="R4" library="SparkFun-Resistors" library_urn="urn:adsk.eagle:library:532" deviceset="0.75OHM" device="-0805-1/4W-1%" package3d_urn="urn:adsk.eagle:package:39651/1" value="2.2k"/>
</parts>
<sheets>
<sheet>
<plain>
</plain>
<instances>
<instance part="U$1" gate="G$1" x="144.78" y="124.46"/>
<instance part="C1" gate="G$1" x="170.18" y="121.92"/>
<instance part="J1" gate="G$1" x="86.36" y="132.08"/>
<instance part="J2" gate="G$1" x="86.36" y="121.92"/>
<instance part="J3" gate="G$1" x="86.36" y="111.76"/>
<instance part="J4" gate="G$1" x="86.36" y="101.6"/>
<instance part="R1" gate="G$1" x="121.92" y="124.46"/>
<instance part="R2" gate="G$1" x="121.92" y="121.92"/>
<instance part="R3" gate="G$1" x="119.38" y="127"/>
<instance part="R4" gate="G$1" x="119.38" y="119.38"/>
</instances>
<busses>
</busses>
<nets>
<net name="GROUND" class="0">
<segment>
<pinref part="U$1" gate="G$1" pin="GND"/>
<wire x1="160.02" y1="111.76" x2="170.18" y2="111.76" width="0.1524" layer="91"/>
<label x="160.02" y="111.76" size="1.778" layer="95"/>
<pinref part="C1" gate="G$1" pin="2"/>
<wire x1="170.18" y1="119.38" x2="170.18" y2="111.76" width="0.1524" layer="91"/>
</segment>
<segment>
<pinref part="J1" gate="G$1" pin="1"/>
<wire x1="93.98" y1="132.08" x2="99.06" y2="132.08" width="0.1524" layer="91"/>
<label x="93.98" y="132.08" size="1.778" layer="95"/>
</segment>
</net>
<net name="VREG" class="0">
<segment>
<pinref part="U$1" gate="G$1" pin="VDD"/>
<wire x1="160.02" y1="134.62" x2="170.18" y2="134.62" width="0.1524" layer="91"/>
<label x="160.02" y="134.62" size="1.778" layer="95"/>
<pinref part="C1" gate="G$1" pin="1"/>
<wire x1="170.18" y1="127" x2="170.18" y2="134.62" width="0.1524" layer="91"/>
</segment>
<segment>
<pinref part="R1" gate="G$1" pin="1"/>
<pinref part="R2" gate="G$1" pin="1"/>
<wire x1="116.84" y1="124.46" x2="116.84" y2="121.92" width="0.1524" layer="91"/>
<pinref part="J2" gate="G$1" pin="1"/>
<wire x1="116.84" y1="121.92" x2="93.98" y2="121.92" width="0.1524" layer="91"/>
<junction x="116.84" y="121.92"/>
<label x="93.98" y="121.92" size="1.778" layer="95"/>
</segment>
</net>
<net name="SCL" class="0">
<segment>
<pinref part="J3" gate="G$1" pin="1"/>
<wire x1="93.98" y1="111.76" x2="99.06" y2="111.76" width="0.1524" layer="91"/>
<label x="93.98" y="111.76" size="1.778" layer="95"/>
</segment>
<segment>
<pinref part="R3" gate="G$1" pin="1"/>
<wire x1="114.3" y1="127" x2="109.22" y2="127" width="0.1524" layer="91"/>
<label x="109.22" y="127" size="1.778" layer="95"/>
</segment>
</net>
<net name="SDA" class="0">
<segment>
<pinref part="J4" gate="G$1" pin="1"/>
<wire x1="93.98" y1="101.6" x2="99.06" y2="101.6" width="0.1524" layer="91"/>
<label x="93.98" y="101.6" size="1.778" layer="95"/>
</segment>
<segment>
<pinref part="R4" gate="G$1" pin="1"/>
<wire x1="114.3" y1="119.38" x2="109.22" y2="119.38" width="0.1524" layer="91"/>
<label x="109.22" y="119.38" size="1.778" layer="95"/>
</segment>
<segment>
<pinref part="U$1" gate="G$1" pin="SDI/SDA"/>
<pinref part="R4" gate="G$1" pin="2"/>
<wire x1="129.54" y1="119.38" x2="124.46" y2="119.38" width="0.1524" layer="91"/>
</segment>
</net>
<net name="SCLK" class="0">
<segment>
<pinref part="U$1" gate="G$1" pin="SCLK"/>
<pinref part="R3" gate="G$1" pin="2"/>
<wire x1="129.54" y1="127" x2="124.46" y2="127" width="0.1524" layer="91"/>
<label x="124.46" y="127" size="1.778" layer="95"/>
</segment>
</net>
<net name="CSB" class="0">
<segment>
<pinref part="U$1" gate="G$1" pin="!CSB"/>
<pinref part="R1" gate="G$1" pin="2"/>
<wire x1="129.54" y1="124.46" x2="127" y2="124.46" width="0.1524" layer="91"/>
<label x="124.46" y="124.46" size="1.778" layer="95"/>
</segment>
</net>
<net name="PS" class="0">
<segment>
<pinref part="U$1" gate="G$1" pin="PS"/>
<pinref part="R2" gate="G$1" pin="2"/>
<wire x1="129.54" y1="121.92" x2="127" y2="121.92" width="0.1524" layer="91"/>
<label x="127" y="121.92" size="1.778" layer="95"/>
</segment>
</net>
</nets>
</sheet>
</sheets>
</schematic>
</drawing>
<compatibility>
<note version="8.2" severity="warning">
Since Version 8.2, EAGLE supports online libraries. The ids
of those online libraries will not be understood (or retained)
with this version.
</note>
<note version="8.3" severity="warning">
Since Version 8.3, EAGLE supports URNs for individual library
assets (packages, symbols, and devices). The URNs of those assets
will not be understood (or retained) with this version.
</note>
<note version="8.3" severity="warning">
Since Version 8.3, EAGLE supports the association of 3D packages
with devices in libraries, schematics, and board files. Those 3D
packages will not be understood (or retained) with this version.
</note>
</compatibility>
</eagle>
